<session jtag_chain="DE-SoC [USB-1]" jtag_device="@2: 5CSE(BA5|MA5)/5CSTFD5D5/.. (0x02D120DD)" sof_file="">
  <display_tree gui_logging_enabled="0">
    <display_branch instance="auto_signaltap_0" signal_set="USE_GLOBAL_TEMP" trigger="USE_GLOBAL_TEMP"/>
  </display_tree>
  <instance enabled="true" entity_name="sld_signaltap" is_auto_node="yes" is_expanded="true" name="auto_signaltap_0" source_file="sld_signaltap.vhd">
    <node_ip_info instance_id="0" mfg_id="110" node_id="0" version="6"/>
    <position_info>
      <single attribute="active tab" value="1"/>
      <single attribute="setup horizontal scroll position" value="0"/>
      <single attribute="setup vertical scroll position" value="0"/>
    </position_info>
    <signal_set global_temp="1" name="signal_set: 2017/01/27 10:05:31  #0">
      <clock name="tbase[22]" polarity="posedge" tap_mode="classic"/>
      <config ram_type="AUTO" reserved_data_nodes="0" reserved_storage_qualifier_nodes="0" reserved_trigger_nodes="0" sample_depth="512" trigger_in_enable="no" trigger_out_enable="no"/>
      <top_entity/>
      <signal_vec>
        <trigger_input_vec>
          <wire name="KEY[0]" tap_mode="classic"/>
        </trigger_input_vec>
        <data_input_vec>
          <wire name="KEY[0]" tap_mode="classic"/>
          <wire name="KEY[1]" tap_mode="classic"/>
          <wire name="KEY[2]" tap_mode="classic"/>
          <wire name="KEY[3]" tap_mode="classic"/>
          <wire name="LEDR[0]" tap_mode="classic"/>
          <wire name="LEDR[1]" tap_mode="classic"/>
          <wire name="LEDR[2]" tap_mode="classic"/>
          <wire name="LEDR[3]" tap_mode="classic"/>
          <wire name="LEDR[4]" tap_mode="classic"/>
          <wire name="LEDR[5]" tap_mode="classic"/>
          <wire name="LEDR[6]" tap_mode="classic"/>
          <wire name="LEDR[7]" tap_mode="classic"/>
          <wire name="LEDR[8]" tap_mode="classic"/>
          <wire name="LEDR[9]" tap_mode="classic"/>
          <wire name="driver:mydriver|DATAOUT[0]" tap_mode="classic"/>
          <wire name="driver:mydriver|DATAOUT[10]" tap_mode="classic"/>
          <wire name="driver:mydriver|DATAOUT[11]" tap_mode="classic"/>
          <wire name="driver:mydriver|DATAOUT[12]" tap_mode="classic"/>
          <wire name="driver:mydriver|DATAOUT[13]" tap_mode="classic"/>
          <wire name="driver:mydriver|DATAOUT[14]" tap_mode="classic"/>
          <wire name="driver:mydriver|DATAOUT[15]" tap_mode="classic"/>
          <wire name="driver:mydriver|DATAOUT[16]" tap_mode="classic"/>
          <wire name="driver:mydriver|DATAOUT[17]" tap_mode="classic"/>
          <wire name="driver:mydriver|DATAOUT[18]" tap_mode="classic"/>
          <wire name="driver:mydriver|DATAOUT[19]" tap_mode="classic"/>
          <wire name="driver:mydriver|DATAOUT[1]" tap_mode="classic"/>
          <wire name="driver:mydriver|DATAOUT[20]" tap_mode="classic"/>
          <wire name="driver:mydriver|DATAOUT[21]" tap_mode="classic"/>
          <wire name="driver:mydriver|DATAOUT[22]" tap_mode="classic"/>
          <wire name="driver:mydriver|DATAOUT[23]" tap_mode="classic"/>
          <wire name="driver:mydriver|DATAOUT[24]" tap_mode="classic"/>
          <wire name="driver:mydriver|DATAOUT[25]" tap_mode="classic"/>
          <wire name="driver:mydriver|DATAOUT[26]" tap_mode="classic"/>
          <wire name="driver:mydriver|DATAOUT[27]" tap_mode="classic"/>
          <wire name="driver:mydriver|DATAOUT[28]" tap_mode="classic"/>
          <wire name="driver:mydriver|DATAOUT[29]" tap_mode="classic"/>
          <wire name="driver:mydriver|DATAOUT[2]" tap_mode="classic"/>
          <wire name="driver:mydriver|DATAOUT[30]" tap_mode="classic"/>
          <wire name="driver:mydriver|DATAOUT[31]" tap_mode="classic"/>
          <wire name="driver:mydriver|DATAOUT[3]" tap_mode="classic"/>
          <wire name="driver:mydriver|DATAOUT[4]" tap_mode="classic"/>
          <wire name="driver:mydriver|DATAOUT[5]" tap_mode="classic"/>
          <wire name="driver:mydriver|DATAOUT[6]" tap_mode="classic"/>
          <wire name="driver:mydriver|DATAOUT[7]" tap_mode="classic"/>
          <wire name="driver:mydriver|DATAOUT[8]" tap_mode="classic"/>
          <wire name="driver:mydriver|DATAOUT[9]" tap_mode="classic"/>
        </data_input_vec>
        <storage_qualifier_input_vec>
          <wire name="KEY[0]" tap_mode="classic"/>
          <wire name="KEY[1]" tap_mode="classic"/>
          <wire name="KEY[2]" tap_mode="classic"/>
          <wire name="KEY[3]" tap_mode="classic"/>
          <wire name="LEDR[0]" tap_mode="classic"/>
          <wire name="LEDR[1]" tap_mode="classic"/>
          <wire name="LEDR[2]" tap_mode="classic"/>
          <wire name="LEDR[3]" tap_mode="classic"/>
          <wire name="LEDR[4]" tap_mode="classic"/>
          <wire name="LEDR[5]" tap_mode="classic"/>
          <wire name="LEDR[6]" tap_mode="classic"/>
          <wire name="LEDR[7]" tap_mode="classic"/>
          <wire name="LEDR[8]" tap_mode="classic"/>
          <wire name="LEDR[9]" tap_mode="classic"/>
          <wire name="driver:mydriver|DATAOUT[0]" tap_mode="classic"/>
          <wire name="driver:mydriver|DATAOUT[10]" tap_mode="classic"/>
          <wire name="driver:mydriver|DATAOUT[11]" tap_mode="classic"/>
          <wire name="driver:mydriver|DATAOUT[12]" tap_mode="classic"/>
          <wire name="driver:mydriver|DATAOUT[13]" tap_mode="classic"/>
          <wire name="driver:mydriver|DATAOUT[14]" tap_mode="classic"/>
          <wire name="driver:mydriver|DATAOUT[15]" tap_mode="classic"/>
          <wire name="driver:mydriver|DATAOUT[16]" tap_mode="classic"/>
          <wire name="driver:mydriver|DATAOUT[17]" tap_mode="classic"/>
          <wire name="driver:mydriver|DATAOUT[18]" tap_mode="classic"/>
          <wire name="driver:mydriver|DATAOUT[19]" tap_mode="classic"/>
          <wire name="driver:mydriver|DATAOUT[1]" tap_mode="classic"/>
          <wire name="driver:mydriver|DATAOUT[20]" tap_mode="classic"/>
          <wire name="driver:mydriver|DATAOUT[21]" tap_mode="classic"/>
          <wire name="driver:mydriver|DATAOUT[22]" tap_mode="classic"/>
          <wire name="driver:mydriver|DATAOUT[23]" tap_mode="classic"/>
          <wire name="driver:mydriver|DATAOUT[24]" tap_mode="classic"/>
          <wire name="driver:mydriver|DATAOUT[25]" tap_mode="classic"/>
          <wire name="driver:mydriver|DATAOUT[26]" tap_mode="classic"/>
          <wire name="driver:mydriver|DATAOUT[27]" tap_mode="classic"/>
          <wire name="driver:mydriver|DATAOUT[28]" tap_mode="classic"/>
          <wire name="driver:mydriver|DATAOUT[29]" tap_mode="classic"/>
          <wire name="driver:mydriver|DATAOUT[2]" tap_mode="classic"/>
          <wire name="driver:mydriver|DATAOUT[30]" tap_mode="classic"/>
          <wire name="driver:mydriver|DATAOUT[31]" tap_mode="classic"/>
          <wire name="driver:mydriver|DATAOUT[3]" tap_mode="classic"/>
          <wire name="driver:mydriver|DATAOUT[4]" tap_mode="classic"/>
          <wire name="driver:mydriver|DATAOUT[5]" tap_mode="classic"/>
          <wire name="driver:mydriver|DATAOUT[6]" tap_mode="classic"/>
          <wire name="driver:mydriver|DATAOUT[7]" tap_mode="classic"/>
          <wire name="driver:mydriver|DATAOUT[8]" tap_mode="classic"/>
          <wire name="driver:mydriver|DATAOUT[9]" tap_mode="classic"/>
        </storage_qualifier_input_vec>
      </signal_vec>
      <presentation>
        <unified_setup_data_view>
          <node is_selected="false" level-0="alt_or" name="LEDR[9..0]" order="msb_to_lsb" storage-0="alt_or" storage-1="alt_or" storage-2="alt_or" type="output pin">
            <node data_index="13" duplicate_name_allowed="false" is_data_input="true" is_node_valid="true" is_selected="false" is_storage_input="true" is_trigger_input="false" name="LEDR[9]" pwr_storage-0="dont_care" pwr_storage-1="dont_care" pwr_storage-2="dont_care" storage-0="dont_care" storage-1="dont_care" storage-2="dont_care" storage_index="13" tap_mode="classic" type="unknown"/>
            <node data_index="12" duplicate_name_allowed="false" is_data_input="true" is_node_valid="true" is_selected="false" is_storage_input="true" is_trigger_input="false" name="LEDR[8]" pwr_storage-0="dont_care" pwr_storage-1="dont_care" pwr_storage-2="dont_care" storage-0="dont_care" storage-1="dont_care" storage-2="dont_care" storage_index="12" tap_mode="classic" type="unknown"/>
            <node data_index="11" duplicate_name_allowed="false" is_data_input="true" is_node_valid="true" is_selected="false" is_storage_input="true" is_trigger_input="false" name="LEDR[7]" pwr_storage-0="dont_care" pwr_storage-1="dont_care" pwr_storage-2="dont_care" storage-0="dont_care" storage-1="dont_care" storage-2="dont_care" storage_index="11" tap_mode="classic" type="unknown"/>
            <node data_index="10" duplicate_name_allowed="false" is_data_input="true" is_node_valid="true" is_selected="false" is_storage_input="true" is_trigger_input="false" name="LEDR[6]" pwr_storage-0="dont_care" pwr_storage-1="dont_care" pwr_storage-2="dont_care" storage-0="dont_care" storage-1="dont_care" storage-2="dont_care" storage_index="10" tap_mode="classic" type="unknown"/>
            <node data_index="9" duplicate_name_allowed="false" is_data_input="true" is_node_valid="true" is_selected="false" is_storage_input="true" is_trigger_input="false" name="LEDR[5]" pwr_storage-0="dont_care" pwr_storage-1="dont_care" pwr_storage-2="dont_care" storage-0="dont_care" storage-1="dont_care" storage-2="dont_care" storage_index="9" tap_mode="classic" type="unknown"/>
            <node data_index="8" duplicate_name_allowed="false" is_data_input="true" is_node_valid="true" is_selected="false" is_storage_input="true" is_trigger_input="false" name="LEDR[4]" pwr_storage-0="dont_care" pwr_storage-1="dont_care" pwr_storage-2="dont_care" storage-0="dont_care" storage-1="dont_care" storage-2="dont_care" storage_index="8" tap_mode="classic" type="unknown"/>
            <node data_index="7" duplicate_name_allowed="false" is_data_input="true" is_node_valid="true" is_selected="false" is_storage_input="true" is_trigger_input="false" name="LEDR[3]" pwr_storage-0="dont_care" pwr_storage-1="dont_care" pwr_storage-2="dont_care" storage-0="dont_care" storage-1="dont_care" storage-2="dont_care" storage_index="7" tap_mode="classic" type="unknown"/>
            <node data_index="6" duplicate_name_allowed="false" is_data_input="true" is_node_valid="true" is_selected="false" is_storage_input="true" is_trigger_input="false" name="LEDR[2]" pwr_storage-0="dont_care" pwr_storage-1="dont_care" pwr_storage-2="dont_care" storage-0="dont_care" storage-1="dont_care" storage-2="dont_care" storage_index="6" tap_mode="classic" type="unknown"/>
            <node data_index="5" duplicate_name_allowed="false" is_data_input="true" is_node_valid="true" is_selected="false" is_storage_input="true" is_trigger_input="false" name="LEDR[1]" pwr_storage-0="dont_care" pwr_storage-1="dont_care" pwr_storage-2="dont_care" storage-0="dont_care" storage-1="dont_care" storage-2="dont_care" storage_index="5" tap_mode="classic" type="unknown"/>
            <node data_index="4" duplicate_name_allowed="false" is_data_input="true" is_node_valid="true" is_selected="false" is_storage_input="true" is_trigger_input="false" name="LEDR[0]" pwr_storage-0="dont_care" pwr_storage-1="dont_care" pwr_storage-2="dont_care" storage-0="dont_care" storage-1="dont_care" storage-2="dont_care" storage_index="4" tap_mode="classic" type="unknown"/>
          </node>
          <node is_selected="false" level-0="alt_or" name="KEY[3..0]" order="msb_to_lsb" state="expand" storage-0="alt_or" storage-1="alt_or" storage-2="alt_or" type="input pin">
            <node data_index="3" duplicate_name_allowed="false" is_data_input="true" is_node_valid="true" is_selected="false" is_storage_input="true" is_trigger_input="false" name="KEY[3]" pwr_storage-0="dont_care" pwr_storage-1="dont_care" pwr_storage-2="dont_care" storage-0="dont_care" storage-1="dont_care" storage-2="dont_care" storage_index="3" tap_mode="classic" type="unknown"/>
            <node data_index="2" duplicate_name_allowed="false" is_data_input="true" is_node_valid="true" is_selected="false" is_storage_input="true" is_trigger_input="false" name="KEY[2]" pwr_storage-0="dont_care" pwr_storage-1="dont_care" pwr_storage-2="dont_care" storage-0="dont_care" storage-1="dont_care" storage-2="dont_care" storage_index="2" tap_mode="classic" type="unknown"/>
            <node data_index="1" duplicate_name_allowed="false" is_data_input="true" is_node_valid="true" is_selected="false" is_storage_input="true" is_trigger_input="false" name="KEY[1]" pwr_storage-0="dont_care" pwr_storage-1="dont_care" pwr_storage-2="dont_care" storage-0="dont_care" storage-1="dont_care" storage-2="dont_care" storage_index="1" tap_mode="classic" type="unknown"/>
            <node data_index="0" duplicate_name_allowed="false" is_data_input="true" is_node_valid="true" is_selected="false" is_storage_input="true" is_trigger_input="true" level-0="rising edge" name="KEY[0]" pwr_level-0="dont_care" pwr_storage-0="dont_care" pwr_storage-1="dont_care" pwr_storage-2="dont_care" storage-0="dont_care" storage-1="dont_care" storage-2="dont_care" storage_index="0" tap_mode="classic" trigger_index="0" type="unknown"/>
          </node>
          <node is_selected="false" level-0="alt_or" name="driver:mydriver|DATAOUT[31..0]" order="msb_to_lsb" storage-0="alt_or" storage-1="alt_or" storage-2="alt_or" type="register">
            <node data_index="38" duplicate_name_allowed="false" is_data_input="true" is_node_valid="true" is_selected="false" is_storage_input="true" is_trigger_input="false" name="driver:mydriver|DATAOUT[31]" pwr_storage-0="dont_care" pwr_storage-1="dont_care" pwr_storage-2="dont_care" storage-0="dont_care" storage-1="dont_care" storage-2="dont_care" storage_index="38" tap_mode="classic" type="unknown"/>
            <node data_index="37" duplicate_name_allowed="false" is_data_input="true" is_node_valid="true" is_selected="false" is_storage_input="true" is_trigger_input="false" name="driver:mydriver|DATAOUT[30]" pwr_storage-0="dont_care" pwr_storage-1="dont_care" pwr_storage-2="dont_care" storage-0="dont_care" storage-1="dont_care" storage-2="dont_care" storage_index="37" tap_mode="classic" type="unknown"/>
            <node data_index="35" duplicate_name_allowed="false" is_data_input="true" is_node_valid="true" is_selected="false" is_storage_input="true" is_trigger_input="false" name="driver:mydriver|DATAOUT[29]" pwr_storage-0="dont_care" pwr_storage-1="dont_care" pwr_storage-2="dont_care" storage-0="dont_care" storage-1="dont_care" storage-2="dont_care" storage_index="35" tap_mode="classic" type="unknown"/>
            <node data_index="34" duplicate_name_allowed="false" is_data_input="true" is_node_valid="true" is_selected="false" is_storage_input="true" is_trigger_input="false" name="driver:mydriver|DATAOUT[28]" pwr_storage-0="dont_care" pwr_storage-1="dont_care" pwr_storage-2="dont_care" storage-0="dont_care" storage-1="dont_care" storage-2="dont_care" storage_index="34" tap_mode="classic" type="unknown"/>
            <node data_index="33" duplicate_name_allowed="false" is_data_input="true" is_node_valid="true" is_selected="false" is_storage_input="true" is_trigger_input="false" name="driver:mydriver|DATAOUT[27]" pwr_storage-0="dont_care" pwr_storage-1="dont_care" pwr_storage-2="dont_care" storage-0="dont_care" storage-1="dont_care" storage-2="dont_care" storage_index="33" tap_mode="classic" type="unknown"/>
            <node data_index="32" duplicate_name_allowed="false" is_data_input="true" is_node_valid="true" is_selected="false" is_storage_input="true" is_trigger_input="false" name="driver:mydriver|DATAOUT[26]" pwr_storage-0="dont_care" pwr_storage-1="dont_care" pwr_storage-2="dont_care" storage-0="dont_care" storage-1="dont_care" storage-2="dont_care" storage_index="32" tap_mode="classic" type="unknown"/>
            <node data_index="31" duplicate_name_allowed="false" is_data_input="true" is_node_valid="true" is_selected="false" is_storage_input="true" is_trigger_input="false" name="driver:mydriver|DATAOUT[25]" pwr_storage-0="dont_care" pwr_storage-1="dont_care" pwr_storage-2="dont_care" storage-0="dont_care" storage-1="dont_care" storage-2="dont_care" storage_index="31" tap_mode="classic" type="unknown"/>
            <node data_index="30" duplicate_name_allowed="false" is_data_input="true" is_node_valid="true" is_selected="false" is_storage_input="true" is_trigger_input="false" name="driver:mydriver|DATAOUT[24]" pwr_storage-0="dont_care" pwr_storage-1="dont_care" pwr_storage-2="dont_care" storage-0="dont_care" storage-1="dont_care" storage-2="dont_care" storage_index="30" tap_mode="classic" type="unknown"/>
            <node data_index="29" duplicate_name_allowed="false" is_data_input="true" is_node_valid="true" is_selected="false" is_storage_input="true" is_trigger_input="false" name="driver:mydriver|DATAOUT[23]" pwr_storage-0="dont_care" pwr_storage-1="dont_care" pwr_storage-2="dont_care" storage-0="dont_care" storage-1="dont_care" storage-2="dont_care" storage_index="29" tap_mode="classic" type="unknown"/>
            <node data_index="28" duplicate_name_allowed="false" is_data_input="true" is_node_valid="true" is_selected="false" is_storage_input="true" is_trigger_input="false" name="driver:mydriver|DATAOUT[22]" pwr_storage-0="dont_care" pwr_storage-1="dont_care" pwr_storage-2="dont_care" storage-0="dont_care" storage-1="dont_care" storage-2="dont_care" storage_index="28" tap_mode="classic" type="unknown"/>
            <node data_index="27" duplicate_name_allowed="false" is_data_input="true" is_node_valid="true" is_selected="false" is_storage_input="true" is_trigger_input="false" name="driver:mydriver|DATAOUT[21]" pwr_storage-0="dont_care" pwr_storage-1="dont_care" pwr_storage-2="dont_care" storage-0="dont_care" storage-1="dont_care" storage-2="dont_care" storage_index="27" tap_mode="classic" type="unknown"/>
            <node data_index="26" duplicate_name_allowed="false" is_data_input="true" is_node_valid="true" is_selected="false" is_storage_input="true" is_trigger_input="false" name="driver:mydriver|DATAOUT[20]" pwr_storage-0="dont_care" pwr_storage-1="dont_care" pwr_storage-2="dont_care" storage-0="dont_care" storage-1="dont_care" storage-2="dont_care" storage_index="26" tap_mode="classic" type="unknown"/>
            <node data_index="24" duplicate_name_allowed="false" is_data_input="true" is_node_valid="true" is_selected="false" is_storage_input="true" is_trigger_input="false" name="driver:mydriver|DATAOUT[19]" pwr_storage-0="dont_care" pwr_storage-1="dont_care" pwr_storage-2="dont_care" storage-0="dont_care" storage-1="dont_care" storage-2="dont_care" storage_index="24" tap_mode="classic" type="unknown"/>
            <node data_index="23" duplicate_name_allowed="false" is_data_input="true" is_node_valid="true" is_selected="false" is_storage_input="true" is_trigger_input="false" name="driver:mydriver|DATAOUT[18]" pwr_storage-0="dont_care" pwr_storage-1="dont_care" pwr_storage-2="dont_care" storage-0="dont_care" storage-1="dont_care" storage-2="dont_care" storage_index="23" tap_mode="classic" type="unknown"/>
            <node data_index="22" duplicate_name_allowed="false" is_data_input="true" is_node_valid="true" is_selected="false" is_storage_input="true" is_trigger_input="false" name="driver:mydriver|DATAOUT[17]" pwr_storage-0="dont_care" pwr_storage-1="dont_care" pwr_storage-2="dont_care" storage-0="dont_care" storage-1="dont_care" storage-2="dont_care" storage_index="22" tap_mode="classic" type="unknown"/>
            <node data_index="21" duplicate_name_allowed="false" is_data_input="true" is_node_valid="true" is_selected="false" is_storage_input="true" is_trigger_input="false" name="driver:mydriver|DATAOUT[16]" pwr_storage-0="dont_care" pwr_storage-1="dont_care" pwr_storage-2="dont_care" storage-0="dont_care" storage-1="dont_care" storage-2="dont_care" storage_index="21" tap_mode="classic" type="unknown"/>
            <node data_index="20" duplicate_name_allowed="false" is_data_input="true" is_node_valid="true" is_selected="false" is_storage_input="true" is_trigger_input="false" name="driver:mydriver|DATAOUT[15]" pwr_storage-0="dont_care" pwr_storage-1="dont_care" pwr_storage-2="dont_care" storage-0="dont_care" storage-1="dont_care" storage-2="dont_care" storage_index="20" tap_mode="classic" type="unknown"/>
            <node data_index="19" duplicate_name_allowed="false" is_data_input="true" is_node_valid="true" is_selected="false" is_storage_input="true" is_trigger_input="false" name="driver:mydriver|DATAOUT[14]" pwr_storage-0="dont_care" pwr_storage-1="dont_care" pwr_storage-2="dont_care" storage-0="dont_care" storage-1="dont_care" storage-2="dont_care" storage_index="19" tap_mode="classic" type="unknown"/>
            <node data_index="18" duplicate_name_allowed="false" is_data_input="true" is_node_valid="true" is_selected="false" is_storage_input="true" is_trigger_input="false" name="driver:mydriver|DATAOUT[13]" pwr_storage-0="dont_care" pwr_storage-1="dont_care" pwr_storage-2="dont_care" storage-0="dont_care" storage-1="dont_care" storage-2="dont_care" storage_index="18" tap_mode="classic" type="unknown"/>
            <node data_index="17" duplicate_name_allowed="false" is_data_input="true" is_node_valid="true" is_selected="false" is_storage_input="true" is_trigger_input="false" name="driver:mydriver|DATAOUT[12]" pwr_storage-0="dont_care" pwr_storage-1="dont_care" pwr_storage-2="dont_care" storage-0="dont_care" storage-1="dont_care" storage-2="dont_care" storage_index="17" tap_mode="classic" type="unknown"/>
            <node data_index="16" duplicate_name_allowed="false" is_data_input="true" is_node_valid="true" is_selected="false" is_storage_input="true" is_trigger_input="false" name="driver:mydriver|DATAOUT[11]" pwr_storage-0="dont_care" pwr_storage-1="dont_care" pwr_storage-2="dont_care" storage-0="dont_care" storage-1="dont_care" storage-2="dont_care" storage_index="16" tap_mode="classic" type="unknown"/>
            <node data_index="15" duplicate_name_allowed="false" is_data_input="true" is_node_valid="true" is_selected="false" is_storage_input="true" is_trigger_input="false" name="driver:mydriver|DATAOUT[10]" pwr_storage-0="dont_care" pwr_storage-1="dont_care" pwr_storage-2="dont_care" storage-0="dont_care" storage-1="dont_care" storage-2="dont_care" storage_index="15" tap_mode="classic" type="unknown"/>
            <node data_index="45" duplicate_name_allowed="false" is_data_input="true" is_node_valid="true" is_selected="false" is_storage_input="true" is_trigger_input="false" name="driver:mydriver|DATAOUT[9]" pwr_storage-0="dont_care" pwr_storage-1="dont_care" pwr_storage-2="dont_care" storage-0="dont_care" storage-1="dont_care" storage-2="dont_care" storage_index="45" tap_mode="classic" type="unknown"/>
            <node data_index="44" duplicate_name_allowed="false" is_data_input="true" is_node_valid="true" is_selected="false" is_storage_input="true" is_trigger_input="false" name="driver:mydriver|DATAOUT[8]" pwr_storage-0="dont_care" pwr_storage-1="dont_care" pwr_storage-2="dont_care" storage-0="dont_care" storage-1="dont_care" storage-2="dont_care" storage_index="44" tap_mode="classic" type="unknown"/>
            <node data_index="43" duplicate_name_allowed="false" is_data_input="true" is_node_valid="true" is_selected="false" is_storage_input="true" is_trigger_input="false" name="driver:mydriver|DATAOUT[7]" pwr_storage-0="dont_care" pwr_storage-1="dont_care" pwr_storage-2="dont_care" storage-0="dont_care" storage-1="dont_care" storage-2="dont_care" storage_index="43" tap_mode="classic" type="unknown"/>
            <node data_index="42" duplicate_name_allowed="false" is_data_input="true" is_node_valid="true" is_selected="false" is_storage_input="true" is_trigger_input="false" name="driver:mydriver|DATAOUT[6]" pwr_storage-0="dont_care" pwr_storage-1="dont_care" pwr_storage-2="dont_care" storage-0="dont_care" storage-1="dont_care" storage-2="dont_care" storage_index="42" tap_mode="classic" type="unknown"/>
            <node data_index="41" duplicate_name_allowed="false" is_data_input="true" is_node_valid="true" is_selected="false" is_storage_input="true" is_trigger_input="false" name="driver:mydriver|DATAOUT[5]" pwr_storage-0="dont_care" pwr_storage-1="dont_care" pwr_storage-2="dont_care" storage-0="dont_care" storage-1="dont_care" storage-2="dont_care" storage_index="41" tap_mode="classic" type="unknown"/>
            <node data_index="40" duplicate_name_allowed="false" is_data_input="true" is_node_valid="true" is_selected="false" is_storage_input="true" is_trigger_input="false" name="driver:mydriver|DATAOUT[4]" pwr_storage-0="dont_care" pwr_storage-1="dont_care" pwr_storage-2="dont_care" storage-0="dont_care" storage-1="dont_care" storage-2="dont_care" storage_index="40" tap_mode="classic" type="unknown"/>
            <node data_index="39" duplicate_name_allowed="false" is_data_input="true" is_node_valid="true" is_selected="false" is_storage_input="true" is_trigger_input="false" name="driver:mydriver|DATAOUT[3]" pwr_storage-0="dont_care" pwr_storage-1="dont_care" pwr_storage-2="dont_care" storage-0="dont_care" storage-1="dont_care" storage-2="dont_care" storage_index="39" tap_mode="classic" type="unknown"/>
            <node data_index="36" duplicate_name_allowed="false" is_data_input="true" is_node_valid="true" is_selected="false" is_storage_input="true" is_trigger_input="false" name="driver:mydriver|DATAOUT[2]" pwr_storage-0="dont_care" pwr_storage-1="dont_care" pwr_storage-2="dont_care" storage-0="dont_care" storage-1="dont_care" storage-2="dont_care" storage_index="36" tap_mode="classic" type="unknown"/>
            <node data_index="25" duplicate_name_allowed="false" is_data_input="true" is_node_valid="true" is_selected="false" is_storage_input="true" is_trigger_input="false" name="driver:mydriver|DATAOUT[1]" pwr_storage-0="dont_care" pwr_storage-1="dont_care" pwr_storage-2="dont_care" storage-0="dont_care" storage-1="dont_care" storage-2="dont_care" storage_index="25" tap_mode="classic" type="unknown"/>
            <node data_index="14" duplicate_name_allowed="false" is_data_input="true" is_node_valid="true" is_selected="false" is_storage_input="true" is_trigger_input="false" name="driver:mydriver|DATAOUT[0]" pwr_storage-0="dont_care" pwr_storage-1="dont_care" pwr_storage-2="dont_care" storage-0="dont_care" storage-1="dont_care" storage-2="dont_care" storage_index="14" tap_mode="classic" type="unknown"/>
          </node>
        </unified_setup_data_view>
        <data_view>
          <bus is_selected="false" level-0="alt_or" name="LEDR[9..0]" order="msb_to_lsb" storage-0="alt_or" storage-1="alt_or" storage-2="alt_or" type="output pin">
            <net data_index="13" duplicate_name_allowed="false" is_data_input="true" is_node_valid="true" is_selected="false" is_storage_input="true" is_trigger_input="false" name="LEDR[9]" pwr_storage-0="dont_care" pwr_storage-1="dont_care" pwr_storage-2="dont_care" storage-0="dont_care" storage-1="dont_care" storage-2="dont_care" storage_index="13" tap_mode="classic" type="unknown"/>
            <net data_index="12" duplicate_name_allowed="false" is_data_input="true" is_node_valid="true" is_selected="false" is_storage_input="true" is_trigger_input="false" name="LEDR[8]" pwr_storage-0="dont_care" pwr_storage-1="dont_care" pwr_storage-2="dont_care" storage-0="dont_care" storage-1="dont_care" storage-2="dont_care" storage_index="12" tap_mode="classic" type="unknown"/>
            <net data_index="11" duplicate_name_allowed="false" is_data_input="true" is_node_valid="true" is_selected="false" is_storage_input="true" is_trigger_input="false" name="LEDR[7]" pwr_storage-0="dont_care" pwr_storage-1="dont_care" pwr_storage-2="dont_care" storage-0="dont_care" storage-1="dont_care" storage-2="dont_care" storage_index="11" tap_mode="classic" type="unknown"/>
            <net data_index="10" duplicate_name_allowed="false" is_data_input="true" is_node_valid="true" is_selected="false" is_storage_input="true" is_trigger_input="false" name="LEDR[6]" pwr_storage-0="dont_care" pwr_storage-1="dont_care" pwr_storage-2="dont_care" storage-0="dont_care" storage-1="dont_care" storage-2="dont_care" storage_index="10" tap_mode="classic" type="unknown"/>
            <net data_index="9" duplicate_name_allowed="false" is_data_input="true" is_node_valid="true" is_selected="false" is_storage_input="true" is_trigger_input="false" name="LEDR[5]" pwr_storage-0="dont_care" pwr_storage-1="dont_care" pwr_storage-2="dont_care" storage-0="dont_care" storage-1="dont_care" storage-2="dont_care" storage_index="9" tap_mode="classic" type="unknown"/>
            <net data_index="8" duplicate_name_allowed="false" is_data_input="true" is_node_valid="true" is_selected="false" is_storage_input="true" is_trigger_input="false" name="LEDR[4]" pwr_storage-0="dont_care" pwr_storage-1="dont_care" pwr_storage-2="dont_care" storage-0="dont_care" storage-1="dont_care" storage-2="dont_care" storage_index="8" tap_mode="classic" type="unknown"/>
            <net data_index="7" duplicate_name_allowed="false" is_data_input="true" is_node_valid="true" is_selected="false" is_storage_input="true" is_trigger_input="false" name="LEDR[3]" pwr_storage-0="dont_care" pwr_storage-1="dont_care" pwr_storage-2="dont_care" storage-0="dont_care" storage-1="dont_care" storage-2="dont_care" storage_index="7" tap_mode="classic" type="unknown"/>
            <net data_index="6" duplicate_name_allowed="false" is_data_input="true" is_node_valid="true" is_selected="false" is_storage_input="true" is_trigger_input="false" name="LEDR[2]" pwr_storage-0="dont_care" pwr_storage-1="dont_care" pwr_storage-2="dont_care" storage-0="dont_care" storage-1="dont_care" storage-2="dont_care" storage_index="6" tap_mode="classic" type="unknown"/>
            <net data_index="5" duplicate_name_allowed="false" is_data_input="true" is_node_valid="true" is_selected="false" is_storage_input="true" is_trigger_input="false" name="LEDR[1]" pwr_storage-0="dont_care" pwr_storage-1="dont_care" pwr_storage-2="dont_care" storage-0="dont_care" storage-1="dont_care" storage-2="dont_care" storage_index="5" tap_mode="classic" type="unknown"/>
            <net data_index="4" duplicate_name_allowed="false" is_data_input="true" is_node_valid="true" is_selected="false" is_storage_input="true" is_trigger_input="false" name="LEDR[0]" pwr_storage-0="dont_care" pwr_storage-1="dont_care" pwr_storage-2="dont_care" storage-0="dont_care" storage-1="dont_care" storage-2="dont_care" storage_index="4" tap_mode="classic" type="unknown"/>
          </bus>
          <bus is_selected="false" level-0="alt_or" name="KEY[3..0]" order="msb_to_lsb" state="expand" storage-0="alt_or" storage-1="alt_or" storage-2="alt_or" type="input pin">
            <net data_index="3" duplicate_name_allowed="false" is_data_input="true" is_node_valid="true" is_selected="false" is_storage_input="true" is_trigger_input="false" name="KEY[3]" pwr_storage-0="dont_care" pwr_storage-1="dont_care" pwr_storage-2="dont_care" storage-0="dont_care" storage-1="dont_care" storage-2="dont_care" storage_index="3" tap_mode="classic" type="unknown"/>
            <net data_index="2" duplicate_name_allowed="false" is_data_input="true" is_node_valid="true" is_selected="false" is_storage_input="true" is_trigger_input="false" name="KEY[2]" pwr_storage-0="dont_care" pwr_storage-1="dont_care" pwr_storage-2="dont_care" storage-0="dont_care" storage-1="dont_care" storage-2="dont_care" storage_index="2" tap_mode="classic" type="unknown"/>
            <net data_index="1" duplicate_name_allowed="false" is_data_input="true" is_node_valid="true" is_selected="false" is_storage_input="true" is_trigger_input="false" name="KEY[1]" pwr_storage-0="dont_care" pwr_storage-1="dont_care" pwr_storage-2="dont_care" storage-0="dont_care" storage-1="dont_care" storage-2="dont_care" storage_index="1" tap_mode="classic" type="unknown"/>
            <net data_index="0" duplicate_name_allowed="false" is_data_input="true" is_node_valid="true" is_selected="false" is_storage_input="true" is_trigger_input="true" level-0="rising edge" name="KEY[0]" pwr_level-0="dont_care" pwr_storage-0="dont_care" pwr_storage-1="dont_care" pwr_storage-2="dont_care" storage-0="dont_care" storage-1="dont_care" storage-2="dont_care" storage_index="0" tap_mode="classic" trigger_index="0" type="unknown"/>
          </bus>
          <bus is_selected="false" level-0="alt_or" name="driver:mydriver|DATAOUT[31..0]" order="msb_to_lsb" storage-0="alt_or" storage-1="alt_or" storage-2="alt_or" type="register">
            <net data_index="38" duplicate_name_allowed="false" is_data_input="true" is_node_valid="true" is_selected="false" is_storage_input="true" is_trigger_input="false" name="driver:mydriver|DATAOUT[31]" pwr_storage-0="dont_care" pwr_storage-1="dont_care" pwr_storage-2="dont_care" storage-0="dont_care" storage-1="dont_care" storage-2="dont_care" storage_index="38" tap_mode="classic" type="unknown"/>
            <net data_index="37" duplicate_name_allowed="false" is_data_input="true" is_node_valid="true" is_selected="false" is_storage_input="true" is_trigger_input="false" name="driver:mydriver|DATAOUT[30]" pwr_storage-0="dont_care" pwr_storage-1="dont_care" pwr_storage-2="dont_care" storage-0="dont_care" storage-1="dont_care" storage-2="dont_care" storage_index="37" tap_mode="classic" type="unknown"/>
            <net data_index="35" duplicate_name_allowed="false" is_data_input="true" is_node_valid="true" is_selected="false" is_storage_input="true" is_trigger_input="false" name="driver:mydriver|DATAOUT[29]" pwr_storage-0="dont_care" pwr_storage-1="dont_care" pwr_storage-2="dont_care" storage-0="dont_care" storage-1="dont_care" storage-2="dont_care" storage_index="35" tap_mode="classic" type="unknown"/>
            <net data_index="34" duplicate_name_allowed="false" is_data_input="true" is_node_valid="true" is_selected="false" is_storage_input="true" is_trigger_input="false" name="driver:mydriver|DATAOUT[28]" pwr_storage-0="dont_care" pwr_storage-1="dont_care" pwr_storage-2="dont_care" storage-0="dont_care" storage-1="dont_care" storage-2="dont_care" storage_index="34" tap_mode="classic" type="unknown"/>
            <net data_index="33" duplicate_name_allowed="false" is_data_input="true" is_node_valid="true" is_selected="false" is_storage_input="true" is_trigger_input="false" name="driver:mydriver|DATAOUT[27]" pwr_storage-0="dont_care" pwr_storage-1="dont_care" pwr_storage-2="dont_care" storage-0="dont_care" storage-1="dont_care" storage-2="dont_care" storage_index="33" tap_mode="classic" type="unknown"/>
            <net data_index="32" duplicate_name_allowed="false" is_data_input="true" is_node_valid="true" is_selected="false" is_storage_input="true" is_trigger_input="false" name="driver:mydriver|DATAOUT[26]" pwr_storage-0="dont_care" pwr_storage-1="dont_care" pwr_storage-2="dont_care" storage-0="dont_care" storage-1="dont_care" storage-2="dont_care" storage_index="32" tap_mode="classic" type="unknown"/>
            <net data_index="31" duplicate_name_allowed="false" is_data_input="true" is_node_valid="true" is_selected="false" is_storage_input="true" is_trigger_input="false" name="driver:mydriver|DATAOUT[25]" pwr_storage-0="dont_care" pwr_storage-1="dont_care" pwr_storage-2="dont_care" storage-0="dont_care" storage-1="dont_care" storage-2="dont_care" storage_index="31" tap_mode="classic" type="unknown"/>
            <net data_index="30" duplicate_name_allowed="false" is_data_input="true" is_node_valid="true" is_selected="false" is_storage_input="true" is_trigger_input="false" name="driver:mydriver|DATAOUT[24]" pwr_storage-0="dont_care" pwr_storage-1="dont_care" pwr_storage-2="dont_care" storage-0="dont_care" storage-1="dont_care" storage-2="dont_care" storage_index="30" tap_mode="classic" type="unknown"/>
            <net data_index="29" duplicate_name_allowed="false" is_data_input="true" is_node_valid="true" is_selected="false" is_storage_input="true" is_trigger_input="false" name="driver:mydriver|DATAOUT[23]" pwr_storage-0="dont_care" pwr_storage-1="dont_care" pwr_storage-2="dont_care" storage-0="dont_care" storage-1="dont_care" storage-2="dont_care" storage_index="29" tap_mode="classic" type="unknown"/>
            <net data_index="28" duplicate_name_allowed="false" is_data_input="true" is_node_valid="true" is_selected="false" is_storage_input="true" is_trigger_input="false" name="driver:mydriver|DATAOUT[22]" pwr_storage-0="dont_care" pwr_storage-1="dont_care" pwr_storage-2="dont_care" storage-0="dont_care" storage-1="dont_care" storage-2="dont_care" storage_index="28" tap_mode="classic" type="unknown"/>
            <net data_index="27" duplicate_name_allowed="false" is_data_input="true" is_node_valid="true" is_selected="false" is_storage_input="true" is_trigger_input="false" name="driver:mydriver|DATAOUT[21]" pwr_storage-0="dont_care" pwr_storage-1="dont_care" pwr_storage-2="dont_care" storage-0="dont_care" storage-1="dont_care" storage-2="dont_care" storage_index="27" tap_mode="classic" type="unknown"/>
            <net data_index="26" duplicate_name_allowed="false" is_data_input="true" is_node_valid="true" is_selected="false" is_storage_input="true" is_trigger_input="false" name="driver:mydriver|DATAOUT[20]" pwr_storage-0="dont_care" pwr_storage-1="dont_care" pwr_storage-2="dont_care" storage-0="dont_care" storage-1="dont_care" storage-2="dont_care" storage_index="26" tap_mode="classic" type="unknown"/>
            <net data_index="24" duplicate_name_allowed="false" is_data_input="true" is_node_valid="true" is_selected="false" is_storage_input="true" is_trigger_input="false" name="driver:mydriver|DATAOUT[19]" pwr_storage-0="dont_care" pwr_storage-1="dont_care" pwr_storage-2="dont_care" storage-0="dont_care" storage-1="dont_care" storage-2="dont_care" storage_index="24" tap_mode="classic" type="unknown"/>
            <net data_index="23" duplicate_name_allowed="false" is_data_input="true" is_node_valid="true" is_selected="false" is_storage_input="true" is_trigger_input="false" name="driver:mydriver|DATAOUT[18]" pwr_storage-0="dont_care" pwr_storage-1="dont_care" pwr_storage-2="dont_care" storage-0="dont_care" storage-1="dont_care" storage-2="dont_care" storage_index="23" tap_mode="classic" type="unknown"/>
            <net data_index="22" duplicate_name_allowed="false" is_data_input="true" is_node_valid="true" is_selected="false" is_storage_input="true" is_trigger_input="false" name="driver:mydriver|DATAOUT[17]" pwr_storage-0="dont_care" pwr_storage-1="dont_care" pwr_storage-2="dont_care" storage-0="dont_care" storage-1="dont_care" storage-2="dont_care" storage_index="22" tap_mode="classic" type="unknown"/>
            <net data_index="21" duplicate_name_allowed="false" is_data_input="true" is_node_valid="true" is_selected="false" is_storage_input="true" is_trigger_input="false" name="driver:mydriver|DATAOUT[16]" pwr_storage-0="dont_care" pwr_storage-1="dont_care" pwr_storage-2="dont_care" storage-0="dont_care" storage-1="dont_care" storage-2="dont_care" storage_index="21" tap_mode="classic" type="unknown"/>
            <net data_index="20" duplicate_name_allowed="false" is_data_input="true" is_node_valid="true" is_selected="false" is_storage_input="true" is_trigger_input="false" name="driver:mydriver|DATAOUT[15]" pwr_storage-0="dont_care" pwr_storage-1="dont_care" pwr_storage-2="dont_care" storage-0="dont_care" storage-1="dont_care" storage-2="dont_care" storage_index="20" tap_mode="classic" type="unknown"/>
            <net data_index="19" duplicate_name_allowed="false" is_data_input="true" is_node_valid="true" is_selected="false" is_storage_input="true" is_trigger_input="false" name="driver:mydriver|DATAOUT[14]" pwr_storage-0="dont_care" pwr_storage-1="dont_care" pwr_storage-2="dont_care" storage-0="dont_care" storage-1="dont_care" storage-2="dont_care" storage_index="19" tap_mode="classic" type="unknown"/>
            <net data_index="18" duplicate_name_allowed="false" is_data_input="true" is_node_valid="true" is_selected="false" is_storage_input="true" is_trigger_input="false" name="driver:mydriver|DATAOUT[13]" pwr_storage-0="dont_care" pwr_storage-1="dont_care" pwr_storage-2="dont_care" storage-0="dont_care" storage-1="dont_care" storage-2="dont_care" storage_index="18" tap_mode="classic" type="unknown"/>
            <net data_index="17" duplicate_name_allowed="false" is_data_input="true" is_node_valid="true" is_selected="false" is_storage_input="true" is_trigger_input="false" name="driver:mydriver|DATAOUT[12]" pwr_storage-0="dont_care" pwr_storage-1="dont_care" pwr_storage-2="dont_care" storage-0="dont_care" storage-1="dont_care" storage-2="dont_care" storage_index="17" tap_mode="classic" type="unknown"/>
            <net data_index="16" duplicate_name_allowed="false" is_data_input="true" is_node_valid="true" is_selected="false" is_storage_input="true" is_trigger_input="false" name="driver:mydriver|DATAOUT[11]" pwr_storage-0="dont_care" pwr_storage-1="dont_care" pwr_storage-2="dont_care" storage-0="dont_care" storage-1="dont_care" storage-2="dont_care" storage_index="16" tap_mode="classic" type="unknown"/>
            <net data_index="15" duplicate_name_allowed="false" is_data_input="true" is_node_valid="true" is_selected="false" is_storage_input="true" is_trigger_input="false" name="driver:mydriver|DATAOUT[10]" pwr_storage-0="dont_care" pwr_storage-1="dont_care" pwr_storage-2="dont_care" storage-0="dont_care" storage-1="dont_care" storage-2="dont_care" storage_index="15" tap_mode="classic" type="unknown"/>
            <net data_index="45" duplicate_name_allowed="false" is_data_input="true" is_node_valid="true" is_selected="false" is_storage_input="true" is_trigger_input="false" name="driver:mydriver|DATAOUT[9]" pwr_storage-0="dont_care" pwr_storage-1="dont_care" pwr_storage-2="dont_care" storage-0="dont_care" storage-1="dont_care" storage-2="dont_care" storage_index="45" tap_mode="classic" type="unknown"/>
            <net data_index="44" duplicate_name_allowed="false" is_data_input="true" is_node_valid="true" is_selected="false" is_storage_input="true" is_trigger_input="false" name="driver:mydriver|DATAOUT[8]" pwr_storage-0="dont_care" pwr_storage-1="dont_care" pwr_storage-2="dont_care" storage-0="dont_care" storage-1="dont_care" storage-2="dont_care" storage_index="44" tap_mode="classic" type="unknown"/>
            <net data_index="43" duplicate_name_allowed="false" is_data_input="true" is_node_valid="true" is_selected="false" is_storage_input="true" is_trigger_input="false" name="driver:mydriver|DATAOUT[7]" pwr_storage-0="dont_care" pwr_storage-1="dont_care" pwr_storage-2="dont_care" storage-0="dont_care" storage-1="dont_care" storage-2="dont_care" storage_index="43" tap_mode="classic" type="unknown"/>
            <net data_index="42" duplicate_name_allowed="false" is_data_input="true" is_node_valid="true" is_selected="false" is_storage_input="true" is_trigger_input="false" name="driver:mydriver|DATAOUT[6]" pwr_storage-0="dont_care" pwr_storage-1="dont_care" pwr_storage-2="dont_care" storage-0="dont_care" storage-1="dont_care" storage-2="dont_care" storage_index="42" tap_mode="classic" type="unknown"/>
            <net data_index="41" duplicate_name_allowed="false" is_data_input="true" is_node_valid="true" is_selected="false" is_storage_input="true" is_trigger_input="false" name="driver:mydriver|DATAOUT[5]" pwr_storage-0="dont_care" pwr_storage-1="dont_care" pwr_storage-2="dont_care" storage-0="dont_care" storage-1="dont_care" storage-2="dont_care" storage_index="41" tap_mode="classic" type="unknown"/>
            <net data_index="40" duplicate_name_allowed="false" is_data_input="true" is_node_valid="true" is_selected="false" is_storage_input="true" is_trigger_input="false" name="driver:mydriver|DATAOUT[4]" pwr_storage-0="dont_care" pwr_storage-1="dont_care" pwr_storage-2="dont_care" storage-0="dont_care" storage-1="dont_care" storage-2="dont_care" storage_index="40" tap_mode="classic" type="unknown"/>
            <net data_index="39" duplicate_name_allowed="false" is_data_input="true" is_node_valid="true" is_selected="false" is_storage_input="true" is_trigger_input="false" name="driver:mydriver|DATAOUT[3]" pwr_storage-0="dont_care" pwr_storage-1="dont_care" pwr_storage-2="dont_care" storage-0="dont_care" storage-1="dont_care" storage-2="dont_care" storage_index="39" tap_mode="classic" type="unknown"/>
            <net data_index="36" duplicate_name_allowed="false" is_data_input="true" is_node_valid="true" is_selected="false" is_storage_input="true" is_trigger_input="false" name="driver:mydriver|DATAOUT[2]" pwr_storage-0="dont_care" pwr_storage-1="dont_care" pwr_storage-2="dont_care" storage-0="dont_care" storage-1="dont_care" storage-2="dont_care" storage_index="36" tap_mode="classic" type="unknown"/>
            <net data_index="25" duplicate_name_allowed="false" is_data_input="true" is_node_valid="true" is_selected="false" is_storage_input="true" is_trigger_input="false" name="driver:mydriver|DATAOUT[1]" pwr_storage-0="dont_care" pwr_storage-1="dont_care" pwr_storage-2="dont_care" storage-0="dont_care" storage-1="dont_care" storage-2="dont_care" storage_index="25" tap_mode="classic" type="unknown"/>
            <net data_index="14" duplicate_name_allowed="false" is_data_input="true" is_node_valid="true" is_selected="false" is_storage_input="true" is_trigger_input="false" name="driver:mydriver|DATAOUT[0]" pwr_storage-0="dont_care" pwr_storage-1="dont_care" pwr_storage-2="dont_care" storage-0="dont_care" storage-1="dont_care" storage-2="dont_care" storage_index="14" tap_mode="classic" type="unknown"/>
          </bus>
        </data_view>
        <setup_view>
          <bus is_selected="false" level-0="alt_or" name="LEDR[9..0]" order="msb_to_lsb" storage-0="alt_or" storage-1="alt_or" storage-2="alt_or" type="output pin">
            <net data_index="13" duplicate_name_allowed="false" is_data_input="true" is_node_valid="true" is_selected="false" is_storage_input="true" is_trigger_input="false" name="LEDR[9]" pwr_storage-0="dont_care" pwr_storage-1="dont_care" pwr_storage-2="dont_care" storage-0="dont_care" storage-1="dont_care" storage-2="dont_care" storage_index="13" tap_mode="classic" type="unknown"/>
            <net data_index="12" duplicate_name_allowed="false" is_data_input="true" is_node_valid="true" is_selected="false" is_storage_input="true" is_trigger_input="false" name="LEDR[8]" pwr_storage-0="dont_care" pwr_storage-1="dont_care" pwr_storage-2="dont_care" storage-0="dont_care" storage-1="dont_care" storage-2="dont_care" storage_index="12" tap_mode="classic" type="unknown"/>
            <net data_index="11" duplicate_name_allowed="false" is_data_input="true" is_node_valid="true" is_selected="false" is_storage_input="true" is_trigger_input="false" name="LEDR[7]" pwr_storage-0="dont_care" pwr_storage-1="dont_care" pwr_storage-2="dont_care" storage-0="dont_care" storage-1="dont_care" storage-2="dont_care" storage_index="11" tap_mode="classic" type="unknown"/>
            <net data_index="10" duplicate_name_allowed="false" is_data_input="true" is_node_valid="true" is_selected="false" is_storage_input="true" is_trigger_input="false" name="LEDR[6]" pwr_storage-0="dont_care" pwr_storage-1="dont_care" pwr_storage-2="dont_care" storage-0="dont_care" storage-1="dont_care" storage-2="dont_care" storage_index="10" tap_mode="classic" type="unknown"/>
            <net data_index="9" duplicate_name_allowed="false" is_data_input="true" is_node_valid="true" is_selected="false" is_storage_input="true" is_trigger_input="false" name="LEDR[5]" pwr_storage-0="dont_care" pwr_storage-1="dont_care" pwr_storage-2="dont_care" storage-0="dont_care" storage-1="dont_care" storage-2="dont_care" storage_index="9" tap_mode="classic" type="unknown"/>
            <net data_index="8" duplicate_name_allowed="false" is_data_input="true" is_node_valid="true" is_selected="false" is_storage_input="true" is_trigger_input="false" name="LEDR[4]" pwr_storage-0="dont_care" pwr_storage-1="dont_care" pwr_storage-2="dont_care" storage-0="dont_care" storage-1="dont_care" storage-2="dont_care" storage_index="8" tap_mode="classic" type="unknown"/>
            <net data_index="7" duplicate_name_allowed="false" is_data_input="true" is_node_valid="true" is_selected="false" is_storage_input="true" is_trigger_input="false" name="LEDR[3]" pwr_storage-0="dont_care" pwr_storage-1="dont_care" pwr_storage-2="dont_care" storage-0="dont_care" storage-1="dont_care" storage-2="dont_care" storage_index="7" tap_mode="classic" type="unknown"/>
            <net data_index="6" duplicate_name_allowed="false" is_data_input="true" is_node_valid="true" is_selected="false" is_storage_input="true" is_trigger_input="false" name="LEDR[2]" pwr_storage-0="dont_care" pwr_storage-1="dont_care" pwr_storage-2="dont_care" storage-0="dont_care" storage-1="dont_care" storage-2="dont_care" storage_index="6" tap_mode="classic" type="unknown"/>
            <net data_index="5" duplicate_name_allowed="false" is_data_input="true" is_node_valid="true" is_selected="false" is_storage_input="true" is_trigger_input="false" name="LEDR[1]" pwr_storage-0="dont_care" pwr_storage-1="dont_care" pwr_storage-2="dont_care" storage-0="dont_care" storage-1="dont_care" storage-2="dont_care" storage_index="5" tap_mode="classic" type="unknown"/>
            <net data_index="4" duplicate_name_allowed="false" is_data_input="true" is_node_valid="true" is_selected="false" is_storage_input="true" is_trigger_input="false" name="LEDR[0]" pwr_storage-0="dont_care" pwr_storage-1="dont_care" pwr_storage-2="dont_care" storage-0="dont_care" storage-1="dont_care" storage-2="dont_care" storage_index="4" tap_mode="classic" type="unknown"/>
          </bus>
          <bus is_selected="false" level-0="alt_or" name="KEY[3..0]" order="msb_to_lsb" state="expand" storage-0="alt_or" storage-1="alt_or" storage-2="alt_or" type="input pin">
            <net data_index="3" duplicate_name_allowed="false" is_data_input="true" is_node_valid="true" is_selected="false" is_storage_input="true" is_trigger_input="false" name="KEY[3]" pwr_storage-0="dont_care" pwr_storage-1="dont_care" pwr_storage-2="dont_care" storage-0="dont_care" storage-1="dont_care" storage-2="dont_care" storage_index="3" tap_mode="classic" type="unknown"/>
            <net data_index="2" duplicate_name_allowed="false" is_data_input="true" is_node_valid="true" is_selected="false" is_storage_input="true" is_trigger_input="false" name="KEY[2]" pwr_storage-0="dont_care" pwr_storage-1="dont_care" pwr_storage-2="dont_care" storage-0="dont_care" storage-1="dont_care" storage-2="dont_care" storage_index="2" tap_mode="classic" type="unknown"/>
            <net data_index="1" duplicate_name_allowed="false" is_data_input="true" is_node_valid="true" is_selected="false" is_storage_input="true" is_trigger_input="false" name="KEY[1]" pwr_storage-0="dont_care" pwr_storage-1="dont_care" pwr_storage-2="dont_care" storage-0="dont_care" storage-1="dont_care" storage-2="dont_care" storage_index="1" tap_mode="classic" type="unknown"/>
            <net data_index="0" duplicate_name_allowed="false" is_data_input="true" is_node_valid="true" is_selected="false" is_storage_input="true" is_trigger_input="true" level-0="rising edge" name="KEY[0]" pwr_level-0="dont_care" pwr_storage-0="dont_care" pwr_storage-1="dont_care" pwr_storage-2="dont_care" storage-0="dont_care" storage-1="dont_care" storage-2="dont_care" storage_index="0" tap_mode="classic" trigger_index="0" type="unknown"/>
          </bus>
          <bus is_selected="false" level-0="alt_or" name="driver:mydriver|DATAOUT[31..0]" order="msb_to_lsb" storage-0="alt_or" storage-1="alt_or" storage-2="alt_or" type="register">
            <net data_index="38" duplicate_name_allowed="false" is_data_input="true" is_node_valid="true" is_selected="false" is_storage_input="true" is_trigger_input="false" name="driver:mydriver|DATAOUT[31]" pwr_storage-0="dont_care" pwr_storage-1="dont_care" pwr_storage-2="dont_care" storage-0="dont_care" storage-1="dont_care" storage-2="dont_care" storage_index="38" tap_mode="classic" type="unknown"/>
            <net data_index="37" duplicate_name_allowed="false" is_data_input="true" is_node_valid="true" is_selected="false" is_storage_input="true" is_trigger_input="false" name="driver:mydriver|DATAOUT[30]" pwr_storage-0="dont_care" pwr_storage-1="dont_care" pwr_storage-2="dont_care" storage-0="dont_care" storage-1="dont_care" storage-2="dont_care" storage_index="37" tap_mode="classic" type="unknown"/>
            <net data_index="35" duplicate_name_allowed="false" is_data_input="true" is_node_valid="true" is_selected="false" is_storage_input="true" is_trigger_input="false" name="driver:mydriver|DATAOUT[29]" pwr_storage-0="dont_care" pwr_storage-1="dont_care" pwr_storage-2="dont_care" storage-0="dont_care" storage-1="dont_care" storage-2="dont_care" storage_index="35" tap_mode="classic" type="unknown"/>
            <net data_index="34" duplicate_name_allowed="false" is_data_input="true" is_node_valid="true" is_selected="false" is_storage_input="true" is_trigger_input="false" name="driver:mydriver|DATAOUT[28]" pwr_storage-0="dont_care" pwr_storage-1="dont_care" pwr_storage-2="dont_care" storage-0="dont_care" storage-1="dont_care" storage-2="dont_care" storage_index="34" tap_mode="classic" type="unknown"/>
            <net data_index="33" duplicate_name_allowed="false" is_data_input="true" is_node_valid="true" is_selected="false" is_storage_input="true" is_trigger_input="false" name="driver:mydriver|DATAOUT[27]" pwr_storage-0="dont_care" pwr_storage-1="dont_care" pwr_storage-2="dont_care" storage-0="dont_care" storage-1="dont_care" storage-2="dont_care" storage_index="33" tap_mode="classic" type="unknown"/>
            <net data_index="32" duplicate_name_allowed="false" is_data_input="true" is_node_valid="true" is_selected="false" is_storage_input="true" is_trigger_input="false" name="driver:mydriver|DATAOUT[26]" pwr_storage-0="dont_care" pwr_storage-1="dont_care" pwr_storage-2="dont_care" storage-0="dont_care" storage-1="dont_care" storage-2="dont_care" storage_index="32" tap_mode="classic" type="unknown"/>
            <net data_index="31" duplicate_name_allowed="false" is_data_input="true" is_node_valid="true" is_selected="false" is_storage_input="true" is_trigger_input="false" name="driver:mydriver|DATAOUT[25]" pwr_storage-0="dont_care" pwr_storage-1="dont_care" pwr_storage-2="dont_care" storage-0="dont_care" storage-1="dont_care" storage-2="dont_care" storage_index="31" tap_mode="classic" type="unknown"/>
            <net data_index="30" duplicate_name_allowed="false" is_data_input="true" is_node_valid="true" is_selected="false" is_storage_input="true" is_trigger_input="false" name="driver:mydriver|DATAOUT[24]" pwr_storage-0="dont_care" pwr_storage-1="dont_care" pwr_storage-2="dont_care" storage-0="dont_care" storage-1="dont_care" storage-2="dont_care" storage_index="30" tap_mode="classic" type="unknown"/>
            <net data_index="29" duplicate_name_allowed="false" is_data_input="true" is_node_valid="true" is_selected="false" is_storage_input="true" is_trigger_input="false" name="driver:mydriver|DATAOUT[23]" pwr_storage-0="dont_care" pwr_storage-1="dont_care" pwr_storage-2="dont_care" storage-0="dont_care" storage-1="dont_care" storage-2="dont_care" storage_index="29" tap_mode="classic" type="unknown"/>
            <net data_index="28" duplicate_name_allowed="false" is_data_input="true" is_node_valid="true" is_selected="false" is_storage_input="true" is_trigger_input="false" name="driver:mydriver|DATAOUT[22]" pwr_storage-0="dont_care" pwr_storage-1="dont_care" pwr_storage-2="dont_care" storage-0="dont_care" storage-1="dont_care" storage-2="dont_care" storage_index="28" tap_mode="classic" type="unknown"/>
            <net data_index="27" duplicate_name_allowed="false" is_data_input="true" is_node_valid="true" is_selected="false" is_storage_input="true" is_trigger_input="false" name="driver:mydriver|DATAOUT[21]" pwr_storage-0="dont_care" pwr_storage-1="dont_care" pwr_storage-2="dont_care" storage-0="dont_care" storage-1="dont_care" storage-2="dont_care" storage_index="27" tap_mode="classic" type="unknown"/>
            <net data_index="26" duplicate_name_allowed="false" is_data_input="true" is_node_valid="true" is_selected="false" is_storage_input="true" is_trigger_input="false" name="driver:mydriver|DATAOUT[20]" pwr_storage-0="dont_care" pwr_storage-1="dont_care" pwr_storage-2="dont_care" storage-0="dont_care" storage-1="dont_care" storage-2="dont_care" storage_index="26" tap_mode="classic" type="unknown"/>
            <net data_index="24" duplicate_name_allowed="false" is_data_input="true" is_node_valid="true" is_selected="false" is_storage_input="true" is_trigger_input="false" name="driver:mydriver|DATAOUT[19]" pwr_storage-0="dont_care" pwr_storage-1="dont_care" pwr_storage-2="dont_care" storage-0="dont_care" storage-1="dont_care" storage-2="dont_care" storage_index="24" tap_mode="classic" type="unknown"/>
            <net data_index="23" duplicate_name_allowed="false" is_data_input="true" is_node_valid="true" is_selected="false" is_storage_input="true" is_trigger_input="false" name="driver:mydriver|DATAOUT[18]" pwr_storage-0="dont_care" pwr_storage-1="dont_care" pwr_storage-2="dont_care" storage-0="dont_care" storage-1="dont_care" storage-2="dont_care" storage_index="23" tap_mode="classic" type="unknown"/>
            <net data_index="22" duplicate_name_allowed="false" is_data_input="true" is_node_valid="true" is_selected="false" is_storage_input="true" is_trigger_input="false" name="driver:mydriver|DATAOUT[17]" pwr_storage-0="dont_care" pwr_storage-1="dont_care" pwr_storage-2="dont_care" storage-0="dont_care" storage-1="dont_care" storage-2="dont_care" storage_index="22" tap_mode="classic" type="unknown"/>
            <net data_index="21" duplicate_name_allowed="false" is_data_input="true" is_node_valid="true" is_selected="false" is_storage_input="true" is_trigger_input="false" name="driver:mydriver|DATAOUT[16]" pwr_storage-0="dont_care" pwr_storage-1="dont_care" pwr_storage-2="dont_care" storage-0="dont_care" storage-1="dont_care" storage-2="dont_care" storage_index="21" tap_mode="classic" type="unknown"/>
            <net data_index="20" duplicate_name_allowed="false" is_data_input="true" is_node_valid="true" is_selected="false" is_storage_input="true" is_trigger_input="false" name="driver:mydriver|DATAOUT[15]" pwr_storage-0="dont_care" pwr_storage-1="dont_care" pwr_storage-2="dont_care" storage-0="dont_care" storage-1="dont_care" storage-2="dont_care" storage_index="20" tap_mode="classic" type="unknown"/>
            <net data_index="19" duplicate_name_allowed="false" is_data_input="true" is_node_valid="true" is_selected="false" is_storage_input="true" is_trigger_input="false" name="driver:mydriver|DATAOUT[14]" pwr_storage-0="dont_care" pwr_storage-1="dont_care" pwr_storage-2="dont_care" storage-0="dont_care" storage-1="dont_care" storage-2="dont_care" storage_index="19" tap_mode="classic" type="unknown"/>
            <net data_index="18" duplicate_name_allowed="false" is_data_input="true" is_node_valid="true" is_selected="false" is_storage_input="true" is_trigger_input="false" name="driver:mydriver|DATAOUT[13]" pwr_storage-0="dont_care" pwr_storage-1="dont_care" pwr_storage-2="dont_care" storage-0="dont_care" storage-1="dont_care" storage-2="dont_care" storage_index="18" tap_mode="classic" type="unknown"/>
            <net data_index="17" duplicate_name_allowed="false" is_data_input="true" is_node_valid="true" is_selected="false" is_storage_input="true" is_trigger_input="false" name="driver:mydriver|DATAOUT[12]" pwr_storage-0="dont_care" pwr_storage-1="dont_care" pwr_storage-2="dont_care" storage-0="dont_care" storage-1="dont_care" storage-2="dont_care" storage_index="17" tap_mode="classic" type="unknown"/>
            <net data_index="16" duplicate_name_allowed="false" is_data_input="true" is_node_valid="true" is_selected="false" is_storage_input="true" is_trigger_input="false" name="driver:mydriver|DATAOUT[11]" pwr_storage-0="dont_care" pwr_storage-1="dont_care" pwr_storage-2="dont_care" storage-0="dont_care" storage-1="dont_care" storage-2="dont_care" storage_index="16" tap_mode="classic" type="unknown"/>
            <net data_index="15" duplicate_name_allowed="false" is_data_input="true" is_node_valid="true" is_selected="false" is_storage_input="true" is_trigger_input="false" name="driver:mydriver|DATAOUT[10]" pwr_storage-0="dont_care" pwr_storage-1="dont_care" pwr_storage-2="dont_care" storage-0="dont_care" storage-1="dont_care" storage-2="dont_care" storage_index="15" tap_mode="classic" type="unknown"/>
            <net data_index="45" duplicate_name_allowed="false" is_data_input="true" is_node_valid="true" is_selected="false" is_storage_input="true" is_trigger_input="false" name="driver:mydriver|DATAOUT[9]" pwr_storage-0="dont_care" pwr_storage-1="dont_care" pwr_storage-2="dont_care" storage-0="dont_care" storage-1="dont_care" storage-2="dont_care" storage_index="45" tap_mode="classic" type="unknown"/>
            <net data_index="44" duplicate_name_allowed="false" is_data_input="true" is_node_valid="true" is_selected="false" is_storage_input="true" is_trigger_input="false" name="driver:mydriver|DATAOUT[8]" pwr_storage-0="dont_care" pwr_storage-1="dont_care" pwr_storage-2="dont_care" storage-0="dont_care" storage-1="dont_care" storage-2="dont_care" storage_index="44" tap_mode="classic" type="unknown"/>
            <net data_index="43" duplicate_name_allowed="false" is_data_input="true" is_node_valid="true" is_selected="false" is_storage_input="true" is_trigger_input="false" name="driver:mydriver|DATAOUT[7]" pwr_storage-0="dont_care" pwr_storage-1="dont_care" pwr_storage-2="dont_care" storage-0="dont_care" storage-1="dont_care" storage-2="dont_care" storage_index="43" tap_mode="classic" type="unknown"/>
            <net data_index="42" duplicate_name_allowed="false" is_data_input="true" is_node_valid="true" is_selected="false" is_storage_input="true" is_trigger_input="false" name="driver:mydriver|DATAOUT[6]" pwr_storage-0="dont_care" pwr_storage-1="dont_care" pwr_storage-2="dont_care" storage-0="dont_care" storage-1="dont_care" storage-2="dont_care" storage_index="42" tap_mode="classic" type="unknown"/>
            <net data_index="41" duplicate_name_allowed="false" is_data_input="true" is_node_valid="true" is_selected="false" is_storage_input="true" is_trigger_input="false" name="driver:mydriver|DATAOUT[5]" pwr_storage-0="dont_care" pwr_storage-1="dont_care" pwr_storage-2="dont_care" storage-0="dont_care" storage-1="dont_care" storage-2="dont_care" storage_index="41" tap_mode="classic" type="unknown"/>
            <net data_index="40" duplicate_name_allowed="false" is_data_input="true" is_node_valid="true" is_selected="false" is_storage_input="true" is_trigger_input="false" name="driver:mydriver|DATAOUT[4]" pwr_storage-0="dont_care" pwr_storage-1="dont_care" pwr_storage-2="dont_care" storage-0="dont_care" storage-1="dont_care" storage-2="dont_care" storage_index="40" tap_mode="classic" type="unknown"/>
            <net data_index="39" duplicate_name_allowed="false" is_data_input="true" is_node_valid="true" is_selected="false" is_storage_input="true" is_trigger_input="false" name="driver:mydriver|DATAOUT[3]" pwr_storage-0="dont_care" pwr_storage-1="dont_care" pwr_storage-2="dont_care" storage-0="dont_care" storage-1="dont_care" storage-2="dont_care" storage_index="39" tap_mode="classic" type="unknown"/>
            <net data_index="36" duplicate_name_allowed="false" is_data_input="true" is_node_valid="true" is_selected="false" is_storage_input="true" is_trigger_input="false" name="driver:mydriver|DATAOUT[2]" pwr_storage-0="dont_care" pwr_storage-1="dont_care" pwr_storage-2="dont_care" storage-0="dont_care" storage-1="dont_care" storage-2="dont_care" storage_index="36" tap_mode="classic" type="unknown"/>
            <net data_index="25" duplicate_name_allowed="false" is_data_input="true" is_node_valid="true" is_selected="false" is_storage_input="true" is_trigger_input="false" name="driver:mydriver|DATAOUT[1]" pwr_storage-0="dont_care" pwr_storage-1="dont_care" pwr_storage-2="dont_care" storage-0="dont_care" storage-1="dont_care" storage-2="dont_care" storage_index="25" tap_mode="classic" type="unknown"/>
            <net data_index="14" duplicate_name_allowed="false" is_data_input="true" is_node_valid="true" is_selected="false" is_storage_input="true" is_trigger_input="false" name="driver:mydriver|DATAOUT[0]" pwr_storage-0="dont_care" pwr_storage-1="dont_care" pwr_storage-2="dont_care" storage-0="dont_care" storage-1="dont_care" storage-2="dont_care" storage_index="14" tap_mode="classic" type="unknown"/>
          </bus>
        </setup_view>
        <trigger_in_editor/>
        <trigger_out_editor/>
      </presentation>
      <trigger attribute_mem_mode="false" gap_record="true" global_temp="1" name="trigger: 2017/01/27 10:05:31  #1" position="pre" power_up_trigger_mode="false" record_data_gap="true" segment_size="64" storage_mode="off" storage_qualifier_disabled="no" storage_qualifier_port_is_pin="false" storage_qualifier_port_name="auto_stp_external_storage_qualifier" storage_qualifier_port_tap_mode="classic" trigger_type="circular">
        <power_up_trigger position="pre" storage_qualifier_disabled="no"/>
        <events use_custom_flow_control="no">
          <level enabled="yes" name="condition1" type="basic">'KEY[0]' == rising edge
            <power_up enabled="yes">
            </power_up>
            <op_node/>
          </level>
        </events>
        <storage_qualifier_events>
          <transitional>1111111111111111111111111111111111111111111111
            <pwr_up_transitional>1111111111111111111111111111111111111111111111</pwr_up_transitional>
          </transitional>
          <storage_qualifier_level type="basic">
            <power_up>
            </power_up>
            <op_node/>
          </storage_qualifier_level>
          <storage_qualifier_level type="basic">
            <power_up>
            </power_up>
            <op_node/>
          </storage_qualifier_level>
          <storage_qualifier_level type="basic">
            <power_up>
            </power_up>
            <op_node/>
          </storage_qualifier_level>
        </storage_qualifier_events>
      </trigger>
    </signal_set>
  </instance>
  <mnemonics/>
  <global_info>
    <single attribute="active instance" value="0"/>
    <single attribute="config widget visible" value="1"/>
    <single attribute="data log widget visible" value="1"/>
    <single attribute="hierarchy widget visible" value="1"/>
    <single attribute="instance widget visible" value="1"/>
    <single attribute="jtag widget visible" value="1"/>
    <single attribute="lock mode" value="0"/>
    <multi attribute="frame size" size="2" value="1318,891"/>
    <multi attribute="jtag widget size" size="2" value="334,139"/>
  </global_info>
</session>
